<?xml version="1.0" encoding="utf-8"?>
<!-- Generator: Adobe Illustrator 14.0.0, SVG Export Plug-In  -->
<!DOCTYPE svg PUBLIC "-//W3C//DTD SVG 1.1//EN" "http://www.w3.org/Graphics/SVG/1.1/DTD/svg11.dtd" [
	<!ENTITY ns_flows "http://ns.adobe.com/Flows/1.0/">
]>
<svg version="1.1"
	 xmlns="http://www.w3.org/2000/svg" xmlns:xlink="http://www.w3.org/1999/xlink" xmlns:a="http://ns.adobe.com/AdobeSVGViewerExtensions/3.0/"
	 x="0px" y="0px" width="45px" height="45px" viewBox="-0.717 -0.741 45 45" enable-background="new -0.717 -0.741 45 45"
	 xml:space="preserve">
<defs>
</defs>
<path fill="#FFFFFF" d="M43.403,20.489c-0.351-0.35-0.87-0.35-1.04-0.7c-0.52-1.04-0.7-2.77-0.7-3.29c0-0.35,0.87-1.91,0.87-2.43
	c0-0.35-0.34-1.04-0.689-1.39c-0.521-0.35-1.221-0.35-1.561-0.52c-0.52-0.17-2.431-2.95-2.431-3.47c0-0.34,0.351-0.69,0.351-1.21
	s-0.87-1.74-1.91-1.74c-0.35,0-0.699,0.35-1.04,0.35c-0.7,0-3.47-2.08-3.64-2.43c-0.52-0.86-0.35-2.25-1.91-2.25
	c-0.351,0-1.91,0.87-2.43,0.87c-0.351,0-2.25-0.18-3.12-0.87c-1.39-0.87-0.87-1.39-2.26-1.39c-0.34,0-1.04-0.17-1.38,0.52
	c-0.18,0.17-0.35,0.69-0.7,0.87c-1.04,0.52-2.77,0.87-3.12,0.87c-0.52,0-2.08-0.87-2.6-0.87c-0.35,0-1.39,0.34-1.56,1.04
	c-0.18,0.17-0.18,0.87-0.35,1.21c-0.17,0.35-2.95,2.43-3.47,2.43c-0.34,0-0.69-0.35-1.21-0.35s-1.74,0.7-1.74,1.74
	c0,0.52,0.18,1.04,0.18,1.39c0,0.69-1.22,2.6-2.08,3.12c-0.52,0.34-1.39,0.34-1.74,0.69c-0.52,0.35-0.69,1.04-0.69,1.39
	c0,0.52,0.86,2.08,0.86,2.43c0,0.52-0.17,2.42-0.86,3.29c-1.04,1.22-1.39,0.7-1.39,2.08c0,0.52-0.17,0.87,0.17,1.221
	c0.35,0.339,1.04,0.52,1.22,1.039c0.52,0.87,0.86,2.771,0.86,3.12c0,0.521-0.86,2.08-0.86,2.43c0,0.521,0.17,1.041,0.69,1.391
	c0.35,0.34,1.04,0.34,1.56,0.521c0.35,0.17,2.43,2.939,2.43,3.46c0,0.52-0.35,0.869-0.35,1.219c0,0.521,0.7,1.911,1.74,1.911
	c0.52,0,0.87-0.351,1.21-0.351c0.52,0,3.3,1.91,3.47,2.431c0.35,0.689,0.35,2.25,1.91,2.25c0.52,0,2.08-0.86,2.43-0.86
	c0.52,0,2.25,0.17,3.29,0.69c0.87,0.52,1.22,1.729,2.08,1.729c0.52,0,1.04-0.341,1.39-0.689c0.351-0.351,0.351-0.87,0.87-1.04
	c0.87-0.521,2.77-0.69,3.12-0.69c0.52,0,2.079,0.86,2.43,0.86c0.34,0,1.391-0.521,1.561-1.04c0.169-0.351,0.169-1.04,0.35-1.21
	c0.17-0.521,2.939-2.431,3.46-2.431s0.7,0.351,1.22,0.351c0.69,0,1.91-0.871,1.91-1.911c0-0.52-0.351-0.699-0.351-1.219
	c0-0.521,1.911-3.29,2.431-3.46c0.689-0.351,2.25-0.351,2.25-1.911c0-0.35-0.87-1.909-0.87-2.43c0-0.35,0.181-2.25,0.7-3.12
	c0.52-1.039,1.73-1.39,1.73-2.26C44.093,21.529,43.752,20.829,43.403,20.489z M37.502,16.668c-4.51-6.42-10.58-9.02-15.61-9.02
	c-6.76,0-12.14,4.16-15.43,9.02v-0.52c2.95-7.98,9.88-10.75,15.43-10.75c5.55,0,12.49,2.77,15.61,10.75V16.668z"/>
</svg>
